1 10 20
100 200 125
201 210 89
900 1000 174
1 1 1
10 10 7
1000 1000 112
9 8 20
92 42 116
55 1 113
10000 999 262
47 47 105
48 48 12
8 8 4
4 3 8
123 321 131
100 1 119
999999 1 525
1 999999 525
10000 5 262
66 66 28
9 1 20
1 9 20
888 888 73
12 6 20
1 10 20
99 99 26
3 3 8
3 3 8
4 4 3
555 555 31
628 826 171
48 21 112
12 33 112
12 44 112
447303 940731 525
57261 26676 340
3120 213 217
932 931 86
930 931 37
6666 6000 262
9703 9326 198
7777 7777 84
11 11 15
10 11 15
11 1 20
11 10 15
12 12 10
100 100 26
110 110 114
101 1010 179
384 382 46
384 384 15
99 99 26
56 32 113
212 212 14
1823 1823 162
1813 1813 17
33 33 27
77 89 111
34 21 112
585 585 57
93 29 116
3423 3423 150
88 70 116
88 1 116
55 2 113
9 9 20
23 11 21
23 10 21
44 21 112
78 43 116
8 3 17
8 8 4
8 8 4
3 8 17
8 44 112
12 5654 238
97 93 119
63 60 108
63 50 113
63001 501369 449
847 517 171
517 517 124
517 847 171
847912 517847 525
783 783 122
498 248 144
498 428 142
498 498 49
497 497 23
725 725 21
725 408 171
400000 400001 193
1359 9531 262
1359 1359 66
133 408 144
143 1 122
133 1 122
1 9 20
4 2 8
2 2 2
101 101 26
75 57 116
234 2 128
98 66 119
86 85 31
86 86 31
8934 29313 308
