.................
----------------------------------------------------------------------
Ran 17 tests in 15.166s

OK
Name             Stmts   Miss Branch BrPart  Cover   Missing
------------------------------------------------------------
Collatz.py          55      0     22      0   100%
TestCollatz.py      62      0      0      0   100%
------------------------------------------------------------
TOTAL              117      0     22      0   100%
