.....................
----------------------------------------------------------------------
Ran 21 tests in 0.243s

OK
Name             Stmts   Miss Branch BrPart  Cover   Missing
------------------------------------------------------------
Collatz.py          60      0     32      0   100%
TestCollatz.py      84      0      0      0   100%
------------------------------------------------------------
TOTAL              144      0     32      0   100%
