1 10 20
100 200 125
201 210 89
900 1000 174
999900 999999 259
1 1 1
10 1 20
1 99999 351
1 999999 525
5524 8772 262
3369 3709 207
6679 5842 262
9416 899 262
1298 2424 183
2023 2125 170
9635 7622 260
1972 8399 262
5677 2409 238
2764 2206 209
6145 8362 262
6076 4413 236
4737 7806 262
957 472 179
7240 4801 262
6762 5735 262
8396 2677 262
7098 5586 262
2327 8926 262
7399 8058 252
7649 4258 262
9482 9533 198
466 5802 238
5375 8342 262
9546 1770 262
7936 6395 257
1093 6824 262
8308 2414 262
3335 5123 238
8761 1998 262
2742 8480 262
628 742 171
2688 2676 98
4531 5128 210
7815 1004 262
9635 3531 262
2803 7370 262
4239 9956 262
5000 3728 215
8840 827 262
8972 2333 262
6869 5829 262
6629 840 262
8311 3030 262
6535 2723 262
8634 9989 260
4429 6119 236
7394 9346 260
5039 6151 236
491 3436 217
5977 8109 262
8524 1312 262
5727 567 238
6543 1167 262
9443 1605 262
1821 2295 183
6002 601 238
2024 2650 209
19 9671 262
3451 6299 262
7046 878 262
3227 4307 238
5383 8130 262
3242 2785 217
6306 7531 257
1963 8707 262
5958 6304 262
5644 4464 236
8824 179 262
1848 5041 238
9162 9871 260
7021 5675 262
6106 8976 262
9361 5511 262
380 6820 262
52 6626 262
6080 3422 238
839 1281 182
659 8436 262
1432 50 182
7601 6372 257
366 681 145
6008 3773 236
2709 4835 238
5256 7531 262
9796 9219 260
5327 4976 192
9357 647 262
6605 252 262
5830 339 238
2819 6534 262
1218 8004 262
8404 4454 262
1202 2537 209
6177 6266 187
2885 8708 262
9753 8013 260
4067 4630 215
3291 6597 262
3141 4863 238
7350 8326 252
594 6797 262
8344 5458 262
662 4039 238
4784 4022 215
2325 1227 183
4032 8140 262
4006 9794 262
3351 7463 262
4 2929 217
8935 9032 247
375 8241 262
8031 8138 190
5419 2156 238
8862 8360 216
2604 7112 262
1814 3275 217
391 9879 262
6652 6872 182
9337 9504 198
7830 826 262
9749 9047 260
6302 3349 262
8603 5044 262
9498 6522 260
8794 1155 262
1936 702 182
8828 1512 262
3296 6576 262
1914 2537 209
3002 8109 262
4429 7927 262
4798 1406 238
5082 5285 192
8426 7605 252
9615 348 262
9364 3210 262
8583 8306 234
6155 3104 238
1937 9057 262
1607 1883 180
2899 7593 262
3440 4871 238
3530 9539 262
7856 4756 262
1477 7911 262
5457 6839 262
315 3753 238
6677 1580 262
4605 5508 210
168197 981654 525
722607 811456 468
440295 448121 356
498443 152471 449
832862 295899 509
783839 941099 525
697938 797733 504
535279 79861 470
631654 888761 525
572029 63138 470
234577 897535 525
374573 77729 443
294873 734393 509
75605 260491 443
214495 229917 386
545390 758794 509
213069 725372 509
879265 705564 525
356853 866379 525
163955 520782 470
383042 635865 509
