.................
----------------------------------------------------------------------
Ran 17 tests in 0.020s

OK
Name             Stmts   Miss Branch BrPart  Cover   Missing
------------------------------------------------------------
Collatz.py          31      0     10      0   100%
TestCollatz.py      72      0      0      0   100%
------------------------------------------------------------
TOTAL              103      0     10      0   100%
